<?xml version="1.0" encoding="UTF-8" standalone="no"?>
<svg
   xmlns:dc="http://purl.org/dc/elements/1.1/"
   xmlns:cc="http://creativecommons.org/ns#"
   xmlns:rdf="http://www.w3.org/1999/02/22-rdf-syntax-ns#"
   xmlns:svg="http://www.w3.org/2000/svg"
   xmlns="http://www.w3.org/2000/svg"
   xmlns:sodipodi="http://sodipodi.sourceforge.net/DTD/sodipodi-0.dtd"
   xmlns:inkscape="http://www.inkscape.org/namespaces/inkscape"
   version="1.1"
   id="svg885"
   width="20.000099"
   height="20"
   viewBox="0 0 20.000099 20"
   sodipodi:docname="isometric_cube.svg"
   inkscape:version="1.0.1 (1.0.1+r73)"
   inkscape:export-filename="/home/guepe/Téléchargements/isometry_wireframe.png"
   inkscape:export-xdpi="300"
   inkscape:export-ydpi="300">
  <style
     id="style1683" />
  <metadata
     id="metadata891">
    <rdf:RDF>
      <cc:Work
         rdf:about="">
        <dc:format>image/svg+xml</dc:format>
        <dc:type
           rdf:resource="http://purl.org/dc/dcmitype/StillImage" />
        <dc:title />
      </cc:Work>
    </rdf:RDF>
  </metadata>
  <defs
     id="defs889">
    <marker
       style="overflow:visible"
       id="marker3465"
       refX="0"
       refY="0"
       orient="auto"
       inkscape:stockid="TriangleOutM"
       inkscape:isstock="true">
      <path
         transform="scale(0.4)"
         style="fill:#000000;fill-opacity:1;fill-rule:evenodd;stroke:#000000;stroke-width:1pt;stroke-opacity:1"
         d="M 5.77,0 -2.88,5 V -5 Z"
         id="path3463" />
    </marker>
    <marker
       style="overflow:visible"
       id="Arrow2Mend"
       refX="0"
       refY="0"
       orient="auto"
       inkscape:stockid="Arrow2Mend"
       inkscape:isstock="true">
      <path
         transform="scale(-0.6)"
         d="M 8.7185878,4.0337352 -2.2072895,0.01601326 8.7185884,-4.0017078 c -1.7454984,2.3720609 -1.7354408,5.6174519 -6e-7,8.035443 z"
         style="fill:#000000;fill-opacity:1;fill-rule:evenodd;stroke:#000000;stroke-width:0.625;stroke-linejoin:round;stroke-opacity:1"
         id="path3082" />
    </marker>
    <marker
       style="overflow:visible"
       id="Arrow2Mstart"
       refX="0"
       refY="0"
       orient="auto"
       inkscape:stockid="Arrow2Mstart"
       inkscape:isstock="true">
      <path
         transform="scale(0.6)"
         d="M 8.7185878,4.0337352 -2.2072895,0.01601326 8.7185884,-4.0017078 c -1.7454984,2.3720609 -1.7354408,5.6174519 -6e-7,8.035443 z"
         style="fill:#000000;fill-opacity:1;fill-rule:evenodd;stroke:#000000;stroke-width:0.625;stroke-linejoin:round;stroke-opacity:1"
         id="path3079" />
    </marker>
    <marker
       style="overflow:visible"
       id="marker5060"
       refX="0"
       refY="0"
       orient="auto"
       inkscape:stockid="TriangleOutM"
       inkscape:isstock="true">
      <path
         transform="scale(0.4)"
         style="fill:#943033;fill-opacity:1;fill-rule:evenodd;stroke:#943033;stroke-width:1pt;stroke-opacity:1"
         d="M 5.77,0 -2.88,5 V -5 Z"
         id="path5058" />
    </marker>
    <marker
       style="overflow:visible"
       id="marker5060-2"
       refX="0"
       refY="0"
       orient="auto"
       inkscape:stockid="TriangleOutM"
       inkscape:isstock="true">
      <path
         transform="scale(0.4)"
         style="fill:#3c5a8f;fill-opacity:1;fill-rule:evenodd;stroke:#3c5a8f;stroke-width:1pt;stroke-opacity:1"
         d="M 5.77,0 -2.88,5 V -5 Z"
         id="path5058-0" />
    </marker>
    <marker
       style="overflow:visible"
       id="marker5060-0"
       refX="0"
       refY="0"
       orient="auto"
       inkscape:stockid="TriangleOutM"
       inkscape:isstock="true">
      <path
         transform="scale(0.4)"
         style="fill:#943033;fill-opacity:1;fill-rule:evenodd;stroke:#943033;stroke-width:1pt;stroke-opacity:1"
         d="M 5.77,0 -2.88,5 V -5 Z"
         id="path5058-2" />
    </marker>
    <marker
       style="overflow:visible"
       id="marker5060-2-3"
       refX="0"
       refY="0"
       orient="auto"
       inkscape:stockid="TriangleOutM"
       inkscape:isstock="true">
      <path
         transform="scale(0.4)"
         style="fill:#3c5a8f;fill-opacity:1;fill-rule:evenodd;stroke:#3c5a8f;stroke-width:1pt;stroke-opacity:1"
         d="M 5.77,0 -2.88,5 V -5 Z"
         id="path5058-0-7" />
    </marker>
  </defs>
  <sodipodi:namedview
     pagecolor="#ffffff"
     bordercolor="#666666"
     borderopacity="1"
     objecttolerance="10"
     gridtolerance="10"
     guidetolerance="10"
     inkscape:pageopacity="1"
     inkscape:pageshadow="2"
     inkscape:window-width="1852"
     inkscape:window-height="1016"
     id="namedview887"
     showgrid="false"
     inkscape:snap-bbox="true"
     inkscape:bbox-nodes="true"
     inkscape:snap-center="true"
     inkscape:snap-object-midpoints="true"
     inkscape:snap-bbox-midpoints="true"
     inkscape:snap-bbox-edge-midpoints="true"
     inkscape:bbox-paths="true"
     lock-margins="true"
     fit-margin-top="0"
     fit-margin-left="0"
     fit-margin-right="0"
     fit-margin-bottom="0"
     inkscape:showpageshadow="false"
     inkscape:snap-page="true"
     inkscape:zoom="3.6203867"
     inkscape:cx="-59823.775"
     inkscape:cy="8918.4524"
     inkscape:window-x="68"
     inkscape:window-y="27"
     inkscape:window-maximized="1"
     inkscape:pagecheckerboard="true"
     inkscape:snap-intersection-paths="true"
     inkscape:snap-midpoints="true"
     showguides="false"
     inkscape:snap-smooth-nodes="true"
     inkscape:document-rotation="0">
    <inkscape:grid
       type="xygrid"
       id="grid1318"
       empcolor="#ff3f3f"
       empopacity="0.25098039"
       originx="-1731.3456"
       originy="-1533.1634" />
  </sodipodi:namedview>
  <g>
    <path
       d="m 1599.0335,1241.4022 -10,5 v 10 l 10,5 10.0001,-5 v -10 z"
       style="fill:#000000;fill-opacity:0.999451"
       id="path1479" />
    <path
       d="m 1589.0335,1246.4022 10,5 v 10 l -10,-5 z"
       style="fill:#ffffff;fill-opacity:0.301061;stroke-width:1.761;stroke-linecap:square"
       id="path1481" />
    <path
       d="m 1609.0336,1246.4022 -10.0001,5 v 10 l 10.0001,-5 z"
       style="fill:#ffffff;fill-opacity:0.6;stroke-width:1.761;stroke-linecap:square"
       id="path1483" />
    <path
       d="m -59900,8890 -10,5 v 10 l 10,5 10,-5 v -10 z"
       style="fill:#000000;fill-opacity:0.999451"
       id="path1479-8" />
    <path
       d="m -59910,8895 10,5 v 10 l -10,-5 z"
       style="fill:#ffffff;fill-opacity:0.301061;stroke-width:1.761;stroke-linecap:square"
       id="path1481-1" />
    <path
       d="m -59890,8895 -10,5 v 10 l 10,-5 z"
       style="fill:#ffffff;fill-opacity:0.6;stroke-width:1.761;stroke-linecap:square"
       id="path1483-2" />
  </g>
</svg>
